<?xml version="1.0" encoding="utf-8"?>
<!-- Generator: Adobe Illustrator 23.0.5, SVG Export Plug-In . SVG Version: 6.00 Build 0)  -->
<svg version="1.1" id="Capa_1" xmlns="http://www.w3.org/2000/svg" xmlns:xlink="http://www.w3.org/1999/xlink" x="0px" y="0px"
	 viewBox="0 0 512 512" style="enable-background:new 0 0 512 512;" xml:space="preserve">
<style type="text/css">
	.st0{fill:#6395A5;}
	.st1{fill:#0070AA;}
	.st2{fill:#474F54;}
	.st3{fill:#F2F9FF;}
	.st4{fill:#FF9100;}
	.st5{fill:#FABE2C;}
	.st6{fill:#32393F;}
	.st7{fill:#575F64;}
	.st8{fill:#FFE1BA;}
	.st9{fill:#FFBFAB;}
	.st10{fill:#294B63;}
	.st11{fill:#DFE7F4;}
	.st12{fill:#C7CFE1;}
</style>
<path class="st0" d="M226,0c-24.8,0-45,20.2-45,45v16l30,15h15h15l30-15V45C271,20.2,250.8,0,226,0z"/>
<path class="st1" d="M271,61V45c0-24.8-20.2-45-45-45v76h15L271,61z"/>
<path class="st2" d="M0,452c7,34.2,38.7,60,75,60s69-25.8,76-60l-32.6-15H20.8L0,452z"/>
<path class="st3" d="M75,482c-24.8,0-45-20.2-45-45s20.2-45,45-45s46,20.2,46,45S99.8,482,75,482z"/>
<path class="st4" d="M151,182H60l-30,30v90l30,15h91l45-15v-81l-15-9L151,182z"/>
<path class="st5" d="M30,152v60h151l15-7.8l-15-7.2v-45H30z"/>
<path class="st0" d="M241,452H0v-15c0-58,48-105,106-105l25-15h140v110L241,452z"/>
<path class="st6" d="M0,302h211v30H0V302z"/>
<path class="st7" d="M316,377.9v56.4L301,452h-60V332h-30c-16.5,0-30-13.5-30-30v-75h90v45c16.5,0,30,13.5,30,30v60L316,377.9z"/>
<path class="st2" d="M316,377.9v56.4L301,452h-60V332h-15V227h45v45c16.5,0,30,13.5,30,30v60L316,377.9z"/>
<g>
	<path class="st1" d="M271,212v-15c0-24.8-20.2-45-45-45s-45,20.2-45,45v30c0,24.9,20.1,45,45,45h121c24.9,0,45-20.1,45-45v-15H271z
		"/>
	<path class="st1" d="M392,227v-15H271v-15c0-24.8-20.2-45-45-45v120h121C371.9,272,392,251.9,392,227z"/>
</g>
<path class="st8" d="M241,76h-15h-15l-30,15v15c0,24.8,20.2,46,45,46s45-21.2,45-46V91L241,76z"/>
<path class="st9" d="M271,106V91l-30-15h-15v76C250.8,152,271,130.8,271,106z"/>
<path class="st2" d="M226,61h-45v30h45h75V61H226z"/>
<path class="st6" d="M226,61h75v30h-75V61z"/>
<path class="st1" d="M433.3,305.4c-1.7-11.7-4.9-34.7-11.5-80.5L362,197v120c0,23.7-20.4,45-46,45h-15v90h30h151l30-15v-30
	C512,359,478.9,317.2,433.3,305.4z"/>
<g>
	<path class="st10" d="M452,242h-45c-24.8,0-45-20.2-45-45s20.2-45,45-45h45V242z"/>
</g>
<path class="st6" d="M441.5,362.5l-4.4,16.7l-25.4-12.5C382.9,377.1,362,404.5,362,437c0,41.4,33.6,75,75,75s75-33.6,75-75
	C512,397.2,480.7,364.8,441.5,362.5z"/>
<g>
	<path class="st11" d="M437,392c-24.8,0-45,20.2-45,45s20.2,45,45,45s45-20.2,45-45S461.8,392,437,392z"/>
</g>
<path class="st12" d="M451.9,434.9l-10.3-72.4c-1.5-0.1-3-0.5-4.5-0.5c-8.9,0-17.3,1.8-25.2,4.7l10.4,72.5L451.9,434.9z"/>
</svg>
