{
  "email": "restaurant@gmail.com",
  "isClose": false,
  "city": "352718999",
  "cusine": ["Italian"],
  "lat": 19.4326077,
  "images": ["", "", "", "", "", ""],
  "time": 4,
  "status": "open",
  "cover": "https://firebasestorage.googleapis.com/v0/b/app-caballos.appspot.com/o/drivers%2Fca.jpg?alt=media&token=53502691-b155-4504-88b2-3f7f7af9ed8b",
  "name": "Selecciona los servicios",
  "dishPrice": 23432,
  "phone": 2,
  "descritions": "qwerqweq",
  "address": "Mexico City, CDMX, Mexico",
  "totalRatting": 0,
  "closeTime": "12:48",
  "uid": "eYKsbaKDLYMFBHEqqJC0N2MqOsA2",
  "ratting": 0,
  "openTime": "12:48",
  "lng": -99.133208
}
