[
  {
    "address": [
      {
        "address": "Río Orinoco 519, Villas de Casa Blanca 1er Sector, 66475 San Nicolás de los Garza, N.L., México",
        "id": "Omb38EMqhh",
        "lat": 25.7323565,
        "lng": -100.24078
      }
    ],
    "appliedCoupon": false,
    "coupon": "NA",
    "couponId": "NA",
    "deliveryCharge": 5,
    "dicount": 0,
    "grandTotal": "84.86",
    "order": "[{\"cid\":{\"id\":\"x4SrLcJlfi\"},\"cover\":\"https://images.uline.com/is/image/content/dam/images/S/S21000/S-20525I.jpg?id=y-ZdJ1&fmt=jpg&fit=constrain,1&wid=374&hei=499&iccEmbed=1&icc=AdobeRGB\",\"desc\":\"12 Articulos para lavar\",\"id\":\"JWd6jeLXvM\",\"name\":\"Servicio de lavado Bolsa Grande\",\"price\":400,\"ratting\":5,\"uid\":\"eYKsbaKDLYMFBHEqqJC0N2MqOsA2\",\"veg\":true,\"quantiy\":4,\"size\":false,\"variations\":[],\"totalRatting\":2,\"selectedItem\":[]},{\"cid\":{\"id\":\"x4SrLcJlfi\"},\"cover\":\"https://images.uline.com/is/image/content/dam/images/S/S21000/S-20525I.jpg?id=y-ZdJ1&fmt=jpg&fit=constrain,1&wid=374&hei=499&iccEmbed=1&icc=AdobeRGB\",\"desc\":\"8 Articulos para lavar\",\"id\":\"JWd6jeLXvM\",\"name\":\"Servicio de lavado Bolsa Estándar \",\"price\":300,\"ratting\":5,\"uid\":\"eYKsbaKDLYMFBHEqqJC0N2MqOsA2\",\"veg\":true,\"quantiy\":3,\"size\":false,\"variations\":[],\"totalRatting\":2,\"selectedItem\":[]}]",

    "orderId:y": "Fp8l3WFvED",
    "paid": "Efectivo",
    "restId": "eYKsbaKDLYMFBHEqqJC0N2MqOsA2",
    "serviceTax": "13.86",
    "status": "Entregado",
    "time": "Martes, Jul 7, 2020 12:19 PM",
    "total": "66.00",
    "uid": "/users/yr9CtTInCIUOIrQlgsxRrMQRqWu1",
    "userId": "yr9CtTInCIUOIrQlgsxRrMQRqWu1",
    "vid": "/venue/eYKsbaKDLYMFBHEqqJC0N2MqOsA2",
    "id": "dGoztfCau2"
  }
]
