{
  "id": "452673269",
  "desc": "111",
  "code": "111",
  "discout": 7,
  "upto": 4,
  "type": "$",
  "min": 15,
  "expire": "2020-07-22",
  "status": "active",
  "available": [
    { "id": "76QG1oKTlyPrUTchHcfHJZ82V3f2", "name": "el mejor" },
    { "name": "asdas", "id": "eYKsbaKDLYMFBHEqqJC0N2MqOsA2" },
    { "name": "el mejorsito", "id": "lVkQfB1NnXOHAbI0BpCluBWmxt82" }
  ]
}
