[
  {
    "uid": "",
    "userId": "",
    "orderId": "Q9RQNP4DY7",
    "vid": {
      "closeTime": "12:48",
      "time": 4,
      "email": "restaurant@gmail.com",
      "dishPrice": 23432,
      "images": ["", "", "", "", "", ""],
      "ratting": 0,
      "descritions": "qwerqweq",
      "phone": 2,
      "openTime": "12:48",
      "uid": "eYKsbaKDLYMFBHEqqJC0N2MqOsA2",
      "isClose": false,
      "status": "open",
      "cover": "https://firebasestorage.googleapis.com/v0/b/app-caballos.appspot.com/o/drivers%2Fca.jpg?alt=media&token=53502691-b155-4504-88b2-3f7f7af9ed8b",
      "lat": 19.4326077,
      "city": "352718999",
      "lng": -99.133208,
      "totalRatting": 0,
      "address": "Mexico City, CDMX, Mexico",
      "name": "asdas",
      "cusine": ["Italian"],
      "id": "eYKsbaKDLYMFBHEqqJC0N2MqOsA2"
    },

    "order": "[{\"cid\":{\"id\":\"x4SrLcJlfi\"},\"cover\":\"assets/bolsa.jpg\",\"desc\":\"12 Articulos para lavar\",\"id\":\"JWd6jeLXvM\",\"name\":\"Servicio de lavado Bolsa grande\",\"price\":400,\"ratting\":5,\"uid\":\"eYKsbaKDLYMFBHEqqJC0N2MqOsA2\",\"veg\":true,\"quantiy\":4,\"size\":false,\"variations\":[],\"totalRatting\":2,\"selectedItem\":[]}]",
    "time": "Tue, Jul 21, 2020 10:34 AM",
    "address": {
      "id": "LlWEvZ4SFV",
      "uid": "",
      "address": "Río Orinoco 519, Villas de Casa Blanca 1er Sector, 66475 San Nicolás de los Garza, N.L., México",
      "lat": 25.7323565,
      "lng": -100.24078,
      "title": "home",
      "house": "",
      "landmark": ""
    },
    "total": "1600.00",
    "grandTotal": "1941.00",
    "serviceTax": "336.00",
    "deliveryCharge": 5,
    "status": "Recolección",
    "restId": "undefined",
    "paid": "now",
    "appliedCoupon": false,
    "couponId": "NA",
    "coupon": "NA",
    "dicount": 0
  },
  {
    "uid": "",
    "userId": "",
    "orderId": "vjCmW7p3RH",
    "vid": {
      "closeTime": "12:48",
      "time": 4,
      "email": "restaurant@gmail.com",
      "dishPrice": 23432,
      "images": ["", "", "", "", "", ""],
      "ratting": 0,
      "descritions": "qwerqweq",
      "phone": 2,
      "openTime": "12:48",
      "uid": "eYKsbaKDLYMFBHEqqJC0N2MqOsA2",
      "isClose": false,
      "status": "open",
      "cover": "https://firebasestorage.googleapis.com/v0/b/app-caballos.appspot.com/o/drivers%2Fca.jpg?alt=media&token=53502691-b155-4504-88b2-3f7f7af9ed8b",
      "lat": 19.4326077,
      "city": "352718999",
      "lng": -99.133208,
      "totalRatting": 0,
      "address": "Mexico City, CDMX, Mexico",
      "name": "asdas",
      "cusine": ["Italian"],
      "id": "eYKsbaKDLYMFBHEqqJC0N2MqOsA2"
    },
    "order": "[{\"cid\":{\"id\":\"x4SrLcJlfi\"},\"cover\":\"assets/bolsa.jpg\",\"desc\":\"12 Articulos para lavar\",\"id\":\"JWd6jeLXvM\",\"name\":\"Servicio de lavado Bolsa grande\",\"price\":400,\"ratting\":5,\"uid\":\"eYKsbaKDLYMFBHEqqJC0N2MqOsA2\",\"veg\":true,\"quantiy\":3,\"size\":false,\"variations\":[],\"totalRatting\":2,\"selectedItem\":[]},{\"cid\":{\"id\":\"x4SrLcJlfi\"},\"cover\":\"assets/bolsaChica.jpg\",\"desc\":\"3 Articulos para lavar\",\"id\":\"JWd6jeLXvM\",\"name\":\"Bolsa Chica\",\"price\":150,\"ratting\":5,\"uid\":\"eYKsbaKDLYMFBHEqqJC0N2MqOsA2\",\"veg\":true,\"quantiy\":2,\"size\":true,\"variations\":[],\"totalRatting\":2,\"selectedItem\":[]}]",
    "time": "Tue, Jul 21, 2020 10:37 AM",
    "address": {
      "id": "nHaZS9ZIRD",
      "uid": "",
      "address": "Río Orinoco 519, Villas de Casa Blanca 1er Sector, 66475 San Nicolás de los Garza, N.L., México",
      "lat": 25.7323565,
      "lng": -100.24078,
      "title": "home",
      "house": "",
      "landmark": ""
    },
    "total": "1500.00",
    "grandTotal": "1820.00",
    "serviceTax": "315.00",
    "deliveryCharge": 5,
    "status": "Recolección",
    "restId": "undefined",
    "paid": "now",
    "appliedCoupon": false,
    "couponId": "NA",
    "coupon": "NA",
    "dicount": 0
  },
  {
    "uid": "",
    "userId": "",
    "orderId": "vjCmW7p3RH",
    "vid": {
      "closeTime": "12:48",
      "time": 4,
      "email": "restaurant@gmail.com",
      "dishPrice": 23432,
      "images": ["", "", "", "", "", ""],
      "ratting": 0,
      "descritions": "qwerqweq",
      "phone": 2,
      "openTime": "12:48",
      "uid": "eYKsbaKDLYMFBHEqqJC0N2MqOsA2",
      "isClose": false,
      "status": "open",
      "cover": "https://firebasestorage.googleapis.com/v0/b/app-caballos.appspot.com/o/drivers%2Fca.jpg?alt=media&token=53502691-b155-4504-88b2-3f7f7af9ed8b",
      "lat": 19.4326077,
      "city": "352718999",
      "lng": -99.133208,
      "totalRatting": 0,
      "address": "Mexico City, CDMX, Mexico",
      "name": "asdas",
      "cusine": ["Italian"],
      "id": "eYKsbaKDLYMFBHEqqJC0N2MqOsA2"
    },
    "order": "[{\"cid\":{\"id\":\"x4SrLcJlfi\"},\"cover\":\"assets/bolsa.jpg\",\"desc\":\"12 Articulos para lavar\",\"id\":\"JWd6jeLXvM\",\"name\":\"Servicio de lavado Bolsa grande\",\"price\":400,\"ratting\":5,\"uid\":\"eYKsbaKDLYMFBHEqqJC0N2MqOsA2\",\"veg\":true,\"quantiy\":3,\"size\":false,\"variations\":[],\"totalRatting\":2,\"selectedItem\":[]},{\"cid\":{\"id\":\"x4SrLcJlfi\"},\"cover\":\"assets/bolsaChica.jpg\",\"desc\":\"3 Articulos para lavar\",\"id\":\"JWd6jeLXvM\",\"name\":\"Bolsa Chica\",\"price\":150,\"ratting\":5,\"uid\":\"eYKsbaKDLYMFBHEqqJC0N2MqOsA2\",\"veg\":true,\"quantiy\":2,\"size\":true,\"variations\":[],\"totalRatting\":2,\"selectedItem\":[]}]",
    "time": "Tue, Jul 21, 2020 10:37 AM",
    "address": {
      "id": "nHaZS9ZIRD",
      "uid": "",
      "address": "Río Orinoco 519, Villas de Casa Blanca 1er Sector, 66475 San Nicolás de los Garza, N.L., México",
      "lat": 25.7323565,
      "lng": -100.24078,
      "title": "home",
      "house": "",
      "landmark": ""
    },
    "total": "1500.00",
    "grandTotal": "1820.00",
    "serviceTax": "315.00",
    "deliveryCharge": 5,
    "status": "Recolectado",
    "restId": "undefined",
    "paid": "after",
    "appliedCoupon": false,
    "couponId": "NA",
    "coupon": "NA",
    "dicount": 0
  },
  {
    "uid": "",
    "userId": "",
    "orderId": "vjCmW7p3RH",
    "vid": {
      "closeTime": "12:48",
      "time": 4,
      "email": "restaurant@gmail.com",
      "dishPrice": 23432,
      "images": ["", "", "", "", "", ""],
      "ratting": 0,
      "descritions": "qwerqweq",
      "phone": 2,
      "openTime": "12:48",
      "uid": "eYKsbaKDLYMFBHEqqJC0N2MqOsA2",
      "isClose": false,
      "status": "open",
      "cover": "https://firebasestorage.googleapis.com/v0/b/app-caballos.appspot.com/o/drivers%2Fca.jpg?alt=media&token=53502691-b155-4504-88b2-3f7f7af9ed8b",
      "lat": 19.4326077,
      "city": "352718999",
      "lng": -99.133208,
      "totalRatting": 0,
      "address": "Mexico City, CDMX, Mexico",
      "name": "asdas",
      "cusine": ["Italian"],
      "id": "eYKsbaKDLYMFBHEqqJC0N2MqOsA2"
    },
    "order": "[{\"cid\":{\"id\":\"x4SrLcJlfi\"},\"cover\":\"assets/bolsa.jpg\",\"desc\":\"12 Articulos para lavar\",\"id\":\"JWd6jeLXvM\",\"name\":\"Servicio de lavado Bolsa grande\",\"price\":400,\"ratting\":5,\"uid\":\"eYKsbaKDLYMFBHEqqJC0N2MqOsA2\",\"veg\":true,\"quantiy\":3,\"size\":false,\"variations\":[],\"totalRatting\":2,\"selectedItem\":[]},{\"cid\":{\"id\":\"x4SrLcJlfi\"},\"cover\":\"assets/bolsaChica.jpg\",\"desc\":\"3 Articulos para lavar\",\"id\":\"JWd6jeLXvM\",\"name\":\"Bolsa Chica\",\"price\":150,\"ratting\":5,\"uid\":\"eYKsbaKDLYMFBHEqqJC0N2MqOsA2\",\"veg\":true,\"quantiy\":2,\"size\":true,\"variations\":[],\"totalRatting\":2,\"selectedItem\":[]}]",
    "time": "Tue, Jul 21, 2020 10:37 AM",
    "address": {
      "id": "nHaZS9ZIRD",
      "uid": "",
      "address": "Río Orinoco 519, Villas de Casa Blanca 1er Sector, 66475 San Nicolás de los Garza, N.L., México",
      "lat": 25.7323565,
      "lng": -100.24078,
      "title": "home",
      "house": "",
      "landmark": ""
    },
    "total": "1500.00",
    "grandTotal": "1820.00",
    "serviceTax": "315.00",
    "deliveryCharge": 5,
    "status": "Recolección",
    "restId": "undefined",
    "paid": "after",
    "appliedCoupon": false,
    "couponId": "NA",
    "coupon": "NA",
    "dicount": 0
  },
  {
    "uid": "",
    "userId": "",
    "orderId": "vjCmW7p3RH",
    "vid": {
      "closeTime": "12:48",
      "time": 4,
      "email": "restaurant@gmail.com",
      "dishPrice": 23432,
      "images": ["", "", "", "", "", ""],
      "ratting": 0,
      "descritions": "qwerqweq",
      "phone": 2,
      "openTime": "12:48",
      "uid": "eYKsbaKDLYMFBHEqqJC0N2MqOsA2",
      "isClose": false,
      "status": "open",
      "cover": "https://firebasestorage.googleapis.com/v0/b/app-caballos.appspot.com/o/drivers%2Fca.jpg?alt=media&token=53502691-b155-4504-88b2-3f7f7af9ed8b",
      "lat": 19.4326077,
      "city": "352718999",
      "lng": -99.133208,
      "totalRatting": 0,
      "address": "Mexico City, CDMX, Mexico",
      "name": "asdas",
      "cusine": ["Italian"],
      "id": "eYKsbaKDLYMFBHEqqJC0N2MqOsA2"
    },
    "order": "[{\"cid\":{\"id\":\"x4SrLcJlfi\"},\"cover\":\"assets/bolsa.jpg\",\"desc\":\"12 Articulos para lavar\",\"id\":\"JWd6jeLXvM\",\"name\":\"Servicio de lavado Bolsa grande\",\"price\":400,\"ratting\":5,\"uid\":\"eYKsbaKDLYMFBHEqqJC0N2MqOsA2\",\"veg\":true,\"quantiy\":3,\"size\":false,\"variations\":[],\"totalRatting\":2,\"selectedItem\":[]},{\"cid\":{\"id\":\"x4SrLcJlfi\"},\"cover\":\"assets/bolsaChica.jpg\",\"desc\":\"3 Articulos para lavar\",\"id\":\"JWd6jeLXvM\",\"name\":\"Bolsa Chica\",\"price\":150,\"ratting\":5,\"uid\":\"eYKsbaKDLYMFBHEqqJC0N2MqOsA2\",\"veg\":true,\"quantiy\":2,\"size\":true,\"variations\":[],\"totalRatting\":2,\"selectedItem\":[]}]",
    "time": "Tue, Jul 21, 2020 10:37 AM",
    "address": {
      "id": "nHaZS9ZIRD",
      "uid": "",
      "address": "Río Orinoco 519, Villas de Casa Blanca 1er Sector, 66475 San Nicolás de los Garza, N.L., México",
      "lat": 25.7323565,
      "lng": -100.24078,
      "title": "home",
      "house": "",
      "landmark": ""
    },
    "total": "1500.00",
    "grandTotal": "1820.00",
    "serviceTax": "315.00",
    "deliveryCharge": 5,
    "status": "Recolección",
    "restId": "undefined",
    "paid": "after",
    "appliedCoupon": false,
    "couponId": "NA",
    "coupon": "NA",
    "dicount": 0
  }
]
