[
  {
    "userId": "yr9CtTInCIUOIrQlgsxRrMQRqWu1",
    "status": "delivered",
    "paid": "cod",
    "deliveryCharge": 5,
    "appliedCoupon": false,
    "couponId": "NA",
    "vid": "",
    "order": "[{\"cid\":{\"id\":\"x4SrLcJlfi\"},\"cover\":\"https://firebasestorage.googleapis.com/v0/b/app-caballos.appspot.com/o/eYKsbaKDLYMFBHEqqJC0N2MqOsA2%2FZVlLc2JhS0RMWU1GQkhFcXFKQzBOMk1xT3NBMi9TWGVySU9oenhF.jpg?alt=media&token=b81009e5-f04b-4170-b65c-cd6f5f65926e\",\"desc\":\"Comida rika\\n\",\"id\":\"JWd6jeLXvM\",\"name\":\"Suhshi\",\"price\":55,\"ratting\":0,\"uid\":\"eYKsbaKDLYMFBHEqqJC0N2MqOsA2\",\"veg\":true,\"quantiy\":1,\"size\":true,\"variations\":[{\"items\":[{\"title\":\"Jdjd\",\"price\":\"33\"},{\"price\":\"73737\",\"title\":\"72727\"}],\"title\":\"size\",\"type\":\"radio\"}],\"totalRatting\":0,\"selectedItem\":[{\"item\":[{\"type\":\"size\",\"value\":33,\"name\":\"Jdjd\"}],\"total\":1}]}]",
    "orderId": "BUoP7J3pxC",
    "address": {
      "address": "Jdjdj Kdkz Río Orinoco 519, Villas de Casa Blanca 1er Sector, 66475 San Nicolás de los Garza, N.L., México",
      "lat": 25.7323565,
      "id": "Omb38EMqhh",
      "lng": -100.24078
    },
    "dicount": 0,
    "uid": "",
    "driverId": "xtLCdzwunBPxUWroWcmuY3lt0cx1",
    "time": "Tue, Jul 7, 2020 9:40 PM",
    "coupon": "NA",
    "grandTotal": "44.93",
    "total": "33.00",
    "serviceTax": "6.93",
    "restId": "eYKsbaKDLYMFBHEqqJC0N2MqOsA2",
    "dId": "",
    "id": "BUoP7J3pxC"
  },
  {
    "order": "[{\"cid\":{\"id\":\"x4SrLcJlfi\"},\"cover\":\"https://firebasestorage.googleapis.com/v0/b/app-caballos.appspot.com/o/eYKsbaKDLYMFBHEqqJC0N2MqOsA2%2FZVlLc2JhS0RMWU1GQkhFcXFKQzBOMk1xT3NBMi9TWGVySU9oenhF.jpg?alt=media&token=b81009e5-f04b-4170-b65c-cd6f5f65926e\",\"desc\":\"Comida rika\\n\",\"id\":\"JWd6jeLXvM\",\"name\":\"Suhshi\",\"price\":55,\"ratting\":5,\"uid\":\"eYKsbaKDLYMFBHEqqJC0N2MqOsA2\",\"veg\":true,\"quantiy\":4,\"size\":true,\"variations\":[{\"items\":[{\"title\":\"Jdjd\",\"price\":\"33\"},{\"price\":\"73737\",\"title\":\"72727\"}],\"type\":\"radio\",\"title\":\"size\"}],\"totalRatting\":2,\"selectedItem\":[{\"item\":[{\"type\":\"size\",\"value\":33,\"name\":\"Jdjd\"}],\"total\":4},{\"item\":[{\"type\":\"size\",\"value\":73737,\"name\":\"72727\"}],\"total\":3},{\"item\":[{\"type\":\"size\",\"value\":33,\"name\":\"Jdjd\"}],\"total\":1},{\"item\":[{\"type\":\"size\",\"value\":33,\"name\":\"Jdjd\"}],\"total\":1}]}]",
    "userId": "yr9CtTInCIUOIrQlgsxRrMQRqWu1",
    "address": {
      "id": "Omb38EMqhh",
      "lng": -100.24078,
      "address": "Jdjdj Kdkz Río Orinoco 519, Villas de Casa Blanca 1er Sector, 66475 San Nicolás de los Garza, N.L., México",
      "lat": 25.7323565
    },
    "status": "ongoing",
    "orderId": "D1rZKg2MQQ",
    "paid": "cod",
    "dId": "",
    "uid": "",
    "total": "221666.00",
    "appliedCoupon": true,
    "serviceTax": "46549.86",
    "deliveryCharge": 5,
    "dicount": 7,
    "vid": "",
    "time": "Thu, Jul 9, 2020 6:37 AM",
    "driverId": "xtLCdzwunBPxUWroWcmuY3lt0cx1",
    "couponId": "452673269",
    "grandTotal": "268220.86",
    "coupon": "{\"id\":\"452673269\",\"min\":15,\"discout\":7,\"available\":[{\"name\":\"el mejor\",\"id\":\"76QG1oKTlyPrUTchHcfHJZ82V3f2\"},{\"id\":\"eYKsbaKDLYMFBHEqqJC0N2MqOsA2\",\"name\":\"asdas\"},{\"name\":\"el mejorsito\",\"id\":\"lVkQfB1NnXOHAbI0BpCluBWmxt82\"}],\"upto\":4,\"expire\":\"2020-07-22\",\"type\":\"$\",\"desc\":\"111\",\"code\":\"111\",\"status\":\"active\"}",
    "restId": "eYKsbaKDLYMFBHEqqJC0N2MqOsA2",
    "id": "D1rZKg2MQQ"
  },
  {
    "dicount": 0,
    "total": "66.00",
    "grandTotal": "84.86",
    "userId": "yr9CtTInCIUOIrQlgsxRrMQRqWu1",
    "restId": "eYKsbaKDLYMFBHEqqJC0N2MqOsA2",
    "orderId": "Fp8l3WFvED",
    "deliveryCharge": 5,
    "serviceTax": "13.86",
    "couponId": "NA",
    "status": "rejected",
    "order": "[{\"cid\":{\"id\":\"x4SrLcJlfi\"},\"cover\":\"https://firebasestorage.googleapis.com/v0/b/app-caballos.appspot.com/o/eYKsbaKDLYMFBHEqqJC0N2MqOsA2%2FZVlLc2JhS0RMWU1GQkhFcXFKQzBOMk1xT3NBMi9TWGVySU9oenhF.jpg?alt=media&token=b81009e5-f04b-4170-b65c-cd6f5f65926e\",\"desc\":\"Comida rika\\n\",\"id\":\"JWd6jeLXvM\",\"name\":\"Suhshi\",\"price\":55,\"ratting\":0,\"uid\":\"eYKsbaKDLYMFBHEqqJC0N2MqOsA2\",\"veg\":true,\"quantiy\":2,\"size\":true,\"variations\":[{\"items\":[{\"title\":\"Jdjd\",\"price\":\"33\"},{\"price\":\"73737\",\"title\":\"72727\"}],\"title\":\"size\",\"type\":\"radio\"}],\"totalRatting\":0,\"selectedItem\":[{\"item\":[{\"type\":\"size\",\"value\":33,\"name\":\"Jdjd\"}],\"total\":1},{\"item\":[{\"type\":\"size\",\"value\":33,\"name\":\"Jdjd\"}],\"total\":1}]}]",
    "vid": "",
    "coupon": "NA",
    "paid": "cod",
    "address": {
      "id": "Omb38EMqhh",
      "lng": -100.24078,
      "lat": 25.7323565,
      "address": "Jdjdj Kdkz Río Orinoco 519, Villas de Casa Blanca 1er Sector, 66475 San Nicolás de los Garza, N.L., México"
    },
    "appliedCoupon": false,
    "time": "Tue, Jul 7, 2020 12:19 PM",
    "uid": "",
    "id": "Fp8l3WFvED",
    "dId": ""
  },
  {
    "couponId": "NA",
    "coupon": "NA",
    "userId": "yr9CtTInCIUOIrQlgsxRrMQRqWu1",
    "order": "[{\"cid\":{\"id\":\"x4SrLcJlfi\"},\"cover\":\"https://firebasestorage.googleapis.com/v0/b/app-caballos.appspot.com/o/eYKsbaKDLYMFBHEqqJC0N2MqOsA2%2FZVlLc2JhS0RMWU1GQkhFcXFKQzBOMk1xT3NBMi9TWGVySU9oenhF.jpg?alt=media&token=b81009e5-f04b-4170-b65c-cd6f5f65926e\",\"desc\":\"Comida rika\\n\",\"id\":\"JWd6jeLXvM\",\"name\":\"Suhshi\",\"price\":55,\"ratting\":0,\"uid\":\"eYKsbaKDLYMFBHEqqJC0N2MqOsA2\",\"veg\":true,\"quantiy\":1,\"size\":true,\"variations\":[{\"type\":\"radio\",\"title\":\"size\",\"items\":[{\"title\":\"Jdjd\",\"price\":\"33\"},{\"price\":\"73737\",\"title\":\"72727\"}]}],\"totalRatting\":0,\"selectedItem\":[{\"item\":[{\"type\":\"size\",\"value\":33,\"name\":\"Jdjd\"}],\"total\":1}]}]",
    "total": "33.00",
    "deliveryCharge": 5,
    "uid": "",
    "grandTotal": "44.93",
    "vid": "",
    "orderId": "LsJe9hG3XN",
    "dicount": 0,
    "appliedCoupon": false,
    "paid": "cod",
    "serviceTax": "6.93",
    "restId": "eYKsbaKDLYMFBHEqqJC0N2MqOsA2",
    "status": "cancel",
    "time": "Tue, Jul 7, 2020 12:08 PM",
    "address": {
      "lng": -100.24078,
      "address": "Jdjdj Kdkz Río Orinoco 519, Villas de Casa Blanca 1er Sector, 66475 San Nicolás de los Garza, N.L., México",
      "id": "Omb38EMqhh",
      "lat": 25.7323565
    },
    "id": "LsJe9hG3XN",
    "dId": ""
  },
  {
    "status": "delivered",
    "grandTotal": "89226.77",
    "deliveryCharge": 5,
    "vid": "",
    "orderId": "No1dhQhBB8",
    "address": {
      "id": "Omb38EMqhh",
      "lat": 25.7323565,
      "lng": -100.24078,
      "address": "Jdjdj Kdkz Río Orinoco 519, Villas de Casa Blanca 1er Sector, 66475 San Nicolás de los Garza, N.L., México"
    },
    "order": "[{\"cid\":{\"id\":\"x4SrLcJlfi\"},\"cover\":\"https://firebasestorage.googleapis.com/v0/b/app-caballos.appspot.com/o/eYKsbaKDLYMFBHEqqJC0N2MqOsA2%2FZVlLc2JhS0RMWU1GQkhFcXFKQzBOMk1xT3NBMi9TWGVySU9oenhF.jpg?alt=media&token=b81009e5-f04b-4170-b65c-cd6f5f65926e\",\"desc\":\"Comida rika\\n\",\"id\":\"JWd6jeLXvM\",\"name\":\"Suhshi\",\"price\":55,\"ratting\":0,\"uid\":\"eYKsbaKDLYMFBHEqqJC0N2MqOsA2\",\"veg\":true,\"quantiy\":1,\"size\":true,\"variations\":[{\"title\":\"size\",\"items\":[{\"price\":\"33\",\"title\":\"Jdjd\"},{\"title\":\"72727\",\"price\":\"73737\"}],\"type\":\"radio\"}],\"totalRatting\":0,\"selectedItem\":[{\"item\":[{\"type\":\"size\",\"value\":73737,\"name\":\"Jdjd\"}],\"total\":1}]}]",
    "appliedCoupon": false,
    "dId": "",
    "restId": "eYKsbaKDLYMFBHEqqJC0N2MqOsA2",
    "serviceTax": "15484.77",
    "paid": "cod",
    "uid": "",
    "couponId": "NA",
    "time": "Tue, Jul 7, 2020 12:22 PM",
    "driverId": "xtLCdzwunBPxUWroWcmuY3lt0cx1",
    "total": "73737.00",
    "userId": "yr9CtTInCIUOIrQlgsxRrMQRqWu1",
    "dicount": 0,
    "coupon": "NA",
    "id": "No1dhQhBB8"
  },
  {
    "vid": "",
    "deliveryCharge": 5,
    "orderId": "RNtgVFBoAo",
    "userId": "yr9CtTInCIUOIrQlgsxRrMQRqWu1",
    "total": "33.00",
    "coupon": "NA",
    "restId": "eYKsbaKDLYMFBHEqqJC0N2MqOsA2",
    "uid": "",
    "paid": "cod",
    "grandTotal": "44.93",
    "time": "Tue, Jul 7, 2020 9:52 PM",
    "couponId": "NA",
    "address": {
      "id": "Omb38EMqhh",
      "lat": 25.7323565,
      "address": "Jdjdj Kdkz Río Orinoco 519, Villas de Casa Blanca 1er Sector, 66475 San Nicolás de los Garza, N.L., México",
      "lng": -100.24078
    },
    "serviceTax": "6.93",
    "status": "cancel",
    "order": "[{\"cid\":{\"id\":\"x4SrLcJlfi\"},\"cover\":\"https://firebasestorage.googleapis.com/v0/b/app-caballos.appspot.com/o/eYKsbaKDLYMFBHEqqJC0N2MqOsA2%2FZVlLc2JhS0RMWU1GQkhFcXFKQzBOMk1xT3NBMi9TWGVySU9oenhF.jpg?alt=media&token=b81009e5-f04b-4170-b65c-cd6f5f65926e\",\"desc\":\"Comida rika\\n\",\"id\":\"JWd6jeLXvM\",\"name\":\"Suhshi\",\"price\":55,\"ratting\":0,\"uid\":\"eYKsbaKDLYMFBHEqqJC0N2MqOsA2\",\"veg\":true,\"quantiy\":1,\"size\":true,\"variations\":[{\"title\":\"size\",\"items\":[{\"title\":\"Jdjd\",\"price\":\"33\"},{\"price\":\"73737\",\"title\":\"72727\"}],\"type\":\"radio\"}],\"totalRatting\":0,\"selectedItem\":[{\"item\":[{\"type\":\"size\",\"value\":33,\"name\":\"Jdjd\"}],\"total\":1}]}]",
    "appliedCoupon": false,
    "driverId": "xtLCdzwunBPxUWroWcmuY3lt0cx1",
    "dicount": 0,
    "dId": "",
    "id": "RNtgVFBoAo"
  },
  {
    "restId": "eYKsbaKDLYMFBHEqqJC0N2MqOsA2",
    "dId": "",
    "coupon": "NA",
    "serviceTax": "69.30",
    "grandTotal": "404.30",
    "total": "330.00",
    "couponId": "NA",
    "appliedCoupon": false,
    "address": {
      "address": "Jdjdj Kdkz Río Orinoco 519, Villas de Casa Blanca 1er Sector, 66475 San Nicolás de los Garza, N.L., México",
      "id": "Omb38EMqhh",
      "lat": 25.7323565,
      "lng": -100.24078
    },
    "userId": "yr9CtTInCIUOIrQlgsxRrMQRqWu1",
    "driverId": "xtLCdzwunBPxUWroWcmuY3lt0cx1",
    "paid": "cod",
    "order": "[{\"cid\":{\"id\":\"x4SrLcJlfi\"},\"cover\":\"https://firebasestorage.googleapis.com/v0/b/app-caballos.appspot.com/o/eYKsbaKDLYMFBHEqqJC0N2MqOsA2%2FZVlLc2JhS0RMWU1GQkhFcXFKQzBOMk1xT3NBMi9TWGVySU9oenhF.jpg?alt=media&token=b81009e5-f04b-4170-b65c-cd6f5f65926e\",\"desc\":\"Comida rika\\n\",\"id\":\"JWd6jeLXvM\",\"name\":\"Suhshi\",\"price\":55,\"ratting\":5,\"uid\":\"eYKsbaKDLYMFBHEqqJC0N2MqOsA2\",\"veg\":true,\"quantiy\":6,\"size\":true,\"variations\":[{\"type\":\"radio\",\"items\":[{\"price\":\"33\",\"title\":\"Jdjd\"},{\"title\":\"72727\",\"price\":\"73737\"}],\"title\":\"size\"}],\"totalRatting\":2,\"selectedItem\":[]}]",
    "uid": "",
    "status": "accepted",
    "vid": "",
    "deliveryCharge": 5,
    "time": "Sun, Jul 12, 2020 8:22 PM",
    "orderId": "WMxtBmchl2",
    "dicount": 0,
    "id": "WMxtBmchl2"
  },
  {
    "appliedCoupon": false,
    "userId": "yr9CtTInCIUOIrQlgsxRrMQRqWu1",
    "serviceTax": "6.93",
    "order": "[{\"cid\":{\"id\":\"x4SrLcJlfi\"},\"cover\":\"https://firebasestorage.googleapis.com/v0/b/app-caballos.appspot.com/o/eYKsbaKDLYMFBHEqqJC0N2MqOsA2%2FZVlLc2JhS0RMWU1GQkhFcXFKQzBOMk1xT3NBMi9TWGVySU9oenhF.jpg?alt=media&token=b81009e5-f04b-4170-b65c-cd6f5f65926e\",\"desc\":\"Comida rika\\n\",\"id\":\"JWd6jeLXvM\",\"name\":\"Suhshi\",\"price\":55,\"ratting\":5,\"uid\":\"eYKsbaKDLYMFBHEqqJC0N2MqOsA2\",\"veg\":true,\"quantiy\":1,\"size\":true,\"variations\":[{\"type\":\"radio\",\"title\":\"size\",\"items\":[{\"title\":\"Jdjd\",\"price\":\"33\"},{\"price\":\"73737\",\"title\":\"72727\"}]}],\"totalRatting\":2,\"selectedItem\":[{\"item\":[{\"type\":\"size\",\"value\":33,\"name\":\"Jdjd\"}],\"total\":1}]}]",
    "paid": "cod",
    "restId": "eYKsbaKDLYMFBHEqqJC0N2MqOsA2",
    "uid": "",
    "address": {
      "id": "Omb38EMqhh",
      "address": "Jdjdj Kdkz Río Orinoco 519, Villas de Casa Blanca 1er Sector, 66475 San Nicolás de los Garza, N.L., México",
      "lng": -100.24078,
      "lat": 25.7323565
    },
    "status": "created",
    "time": "Thu, Jul 16, 2020 5:57 AM",
    "couponId": "NA",
    "orderId": "YBoiIp2BAV",
    "coupon": "NA",
    "grandTotal": "44.93",
    "dicount": 0,
    "total": "33.00",
    "deliveryCharge": 5,
    "vid": "",
    "id": "YBoiIp2BAV",
    "dId": ""
  },
  {
    "deliveryCharge": 5,
    "uid": "",
    "address": {
      "lng": -100.24078,
      "lat": 25.7323565,
      "id": "Omb38EMqhh",
      "address": "Jdjdj Kdkz Río Orinoco 519, Villas de Casa Blanca 1er Sector, 66475 San Nicolás de los Garza, N.L., México"
    },
    "vid": "",
    "time": "Tue, Jul 7, 2020 11:10 PM",
    "orderId": "dGoztfCau2",
    "userId": "yr9CtTInCIUOIrQlgsxRrMQRqWu1",
    "coupon": "NA",
    "total": "132.00",
    "grandTotal": "164.72",
    "driverId": "xtLCdzwunBPxUWroWcmuY3lt0cx1",
    "order": "[{\"cid\":{\"id\":\"x4SrLcJlfi\"},\"cover\":\"https://firebasestorage.googleapis.com/v0/b/app-caballos.appspot.com/o/eYKsbaKDLYMFBHEqqJC0N2MqOsA2%2FZVlLc2JhS0RMWU1GQkhFcXFKQzBOMk1xT3NBMi9TWGVySU9oenhF.jpg?alt=media&token=b81009e5-f04b-4170-b65c-cd6f5f65926e\",\"desc\":\"Comida rika\\n\",\"id\":\"JWd6jeLXvM\",\"name\":\"Suhshi\",\"price\":55,\"ratting\":0,\"uid\":\"eYKsbaKDLYMFBHEqqJC0N2MqOsA2\",\"veg\":true,\"quantiy\":1,\"size\":true,\"variations\":[{\"title\":\"size\",\"items\":[{\"title\":\"Jdjd\",\"price\":\"33\"},{\"price\":\"73737\",\"title\":\"72727\"}],\"type\":\"radio\"}],\"totalRatting\":0,\"selectedItem\":[{\"item\":[{\"type\":\"size\",\"value\":33,\"name\":\"Jdjd\"}],\"total\":4}]}]",
    "appliedCoupon": false,
    "serviceTax": "27.72",
    "couponId": "NA",
    "dId": "",
    "restId": "eYKsbaKDLYMFBHEqqJC0N2MqOsA2",
    "status": "delivered",
    "dicount": 0,
    "paid": "cod",
    "id": "dGoztfCau2"
  },
  {
    "vid": "",
    "serviceTax": "743518.44",
    "grandTotal": "4284087.44",
    "restId": "eYKsbaKDLYMFBHEqqJC0N2MqOsA2",
    "couponId": "NA",
    "orderId": "e0OPG7877I",
    "uid": "",
    "paid": "cod",
    "status": "created",
    "order": "[{\"cid\":{\"id\":\"x4SrLcJlfi\"},\"cover\":\"https://firebasestorage.googleapis.com/v0/b/app-caballos.appspot.com/o/eYKsbaKDLYMFBHEqqJC0N2MqOsA2%2FZVlLc2JhS0RMWU1GQkhFcXFKQzBOMk1xT3NBMi9TWGVySU9oenhF.jpg?alt=media&token=b81009e5-f04b-4170-b65c-cd6f5f65926e\",\"desc\":\"Comida rika\\n\",\"id\":\"JWd6jeLXvM\",\"name\":\"Suhshi\",\"price\":55,\"ratting\":5,\"uid\":\"eYKsbaKDLYMFBHEqqJC0N2MqOsA2\",\"veg\":true,\"quantiy\":3,\"size\":true,\"variations\":[{\"type\":\"radio\",\"title\":\"size\",\"items\":[{\"price\":\"33\",\"title\":\"Jdjd\"},{\"price\":\"73737\",\"title\":\"72727\"}]}],\"totalRatting\":2,\"selectedItem\":[{\"item\":[{\"type\":\"size\",\"value\":33,\"name\":\"Jdjd\"}],\"total\":1},{\"item\":[{\"type\":\"size\",\"value\":73737,\"name\":\"72727\"}],\"total\":3},{\"item\":[{\"type\":\"size\",\"value\":73737,\"name\":\"72727\"}],\"total\":12}]}]",
    "dicount": 0,
    "address": {
      "id": "Omb38EMqhh",
      "lng": -100.24078,
      "address": "Jdjdj Kdkz Río Orinoco 519, Villas de Casa Blanca 1er Sector, 66475 San Nicolás de los Garza, N.L., México",
      "lat": 25.7323565
    },
    "total": "3540564.00",
    "deliveryCharge": 5,
    "time": "Thu, Jul 9, 2020 6:44 AM",
    "coupon": "NA",
    "userId": "yr9CtTInCIUOIrQlgsxRrMQRqWu1",
    "appliedCoupon": false,
    "id": "e0OPG7877I",
    "dId": ""
  },
  {
    "time": "Thu, Jul 9, 2020 2:28 PM",
    "serviceTax": "62077.68",
    "uid": "",
    "address": {
      "lng": -100.24078,
      "lat": 25.7323565,
      "id": "Omb38EMqhh",
      "address": "Jdjdj Kdkz Río Orinoco 519, Villas de Casa Blanca 1er Sector, 66475 San Nicolás de los Garza, N.L., México"
    },
    "coupon": "NA",
    "userId": "yr9CtTInCIUOIrQlgsxRrMQRqWu1",
    "restId": "eYKsbaKDLYMFBHEqqJC0N2MqOsA2",
    "status": "created",
    "couponId": "NA",
    "deliveryCharge": 5,
    "total": "295608.00",
    "paid": "cod",
    "vid": "",
    "appliedCoupon": false,
    "order": "[{\"cid\":{\"id\":\"x4SrLcJlfi\"},\"cover\":\"https://firebasestorage.googleapis.com/v0/b/app-caballos.appspot.com/o/eYKsbaKDLYMFBHEqqJC0N2MqOsA2%2FZVlLc2JhS0RMWU1GQkhFcXFKQzBOMk1xT3NBMi9TWGVySU9oenhF.jpg?alt=media&token=b81009e5-f04b-4170-b65c-cd6f5f65926e\",\"desc\":\"Comida rika\\n\",\"id\":\"JWd6jeLXvM\",\"name\":\"Suhshi\",\"price\":55,\"ratting\":5,\"uid\":\"eYKsbaKDLYMFBHEqqJC0N2MqOsA2\",\"veg\":true,\"quantiy\":2,\"size\":true,\"variations\":[{\"type\":\"radio\",\"title\":\"size\",\"items\":[{\"price\":\"33\",\"title\":\"Jdjd\"},{\"price\":\"73737\",\"title\":\"72727\"}]}],\"totalRatting\":2,\"selectedItem\":[{\"item\":[{\"type\":\"size\",\"value\":33,\"name\":\"Jdjd\"}],\"total\":5},{\"item\":[{\"type\":\"size\",\"value\":73737,\"name\":\"72727\"}],\"total\":4}]}]",
    "grandTotal": "357690.68",
    "dicount": 0,
    "orderId": "rdITdzZF5m",
    "id": "rdITdzZF5m",
    "dId": ""
  }
]
